demo
…
demo

library(FarsFunctions2)

temp<-make_filename(2013)
fars_read(temp)
#> # A tibble: 30,202 x 50
#>    STATE ST_CASE VE_TOTAL VE_FORMS PVH_INVL  PEDS PERNOTMVIT PERMVIT
#>    <dbl>   <dbl>    <dbl>    <dbl>    <dbl> <dbl>      <dbl>   <dbl>
#>  1     1   10001        1        1        0     0          0       8
#>  2     1   10002        2        2        0     0          0       2
#>  3     1   10003        1        1        0     0          0       1
#>  4     1   10004        1        1        0     0          0       3
#>  5     1   10005        2        2        0     0          0       3
#>  6     1   10006        2        2        0     0          0       3
#>  7     1   10007        1        1        0     0          0       1
#>  8     1   10008        2        2        0     0          0       2
#>  9     1   10009        1        1        0     0          0       1
#> 10     1   10010        2        2        0     0          0       4
#> # ... with 30,192 more rows, and 42 more variables: PERSONS <dbl>,
#> #   COUNTY <dbl>, CITY <dbl>, DAY <dbl>, MONTH <dbl>, YEAR <dbl>,
#> #   DAY_WEEK <dbl>, HOUR <dbl>, MINUTE <dbl>, NHS <dbl>, ROAD_FNC <dbl>,
#> #   ROUTE <dbl>, TWAY_ID <chr>, TWAY_ID2 <chr>, MILEPT <dbl>,
#> #   LATITUDE <dbl>, LONGITUD <dbl>, SP_JUR <dbl>, HARM_EV <dbl>,
#> #   MAN_COLL <dbl>, RELJCT1 <dbl>, RELJCT2 <dbl>, TYP_INT <dbl>,
#> #   WRK_ZONE <dbl>, REL_ROAD <dbl>, LGT_COND <dbl>, WEATHER1 <dbl>,
#> #   WEATHER2 <dbl>, WEATHER <dbl>, SCH_BUS <dbl>, RAIL <chr>,
#> #   NOT_HOUR <dbl>, NOT_MIN <dbl>, ARR_HOUR <dbl>, ARR_MIN <dbl>,
…
